{
  "IsEncrypted": false,
  "Values": {
    "AzureWebJobsStorage": "UseDevelopmentStorage=true",
    "FUNCTIONS_WORKER_RUNTIME": "dotnet-isolated",
    "SenderEmail": "pv260.purple@gmail.com",
    "SmtpAddress": "smtp.gmail.com",
    "Subject": "ARK holdings - update",
    "Body": "Please find the attached file.",
    "PortNumber": 587,
    "EnableSSL": true,
    "HoldingsUrl": "https://ark-funds.com/wp-content/uploads/funds-etf-csv/ARK_INNOVATION_ETF_ARKK_HOLDINGS.csv",
    "DefaultRequestHeader": "Mozilla/5.0 (Windows NT 10.0; Win64) AppleWebKit/537.36 (KHTML, like Gecko) Chrome/58.0.3029.110 Safari/537.3"
  }
}